[
    {
        "country_code": "ru",
        "title": "Map of Russia",
        "size": 313527800,
        "preview_url": "https://bitbucket.org/isabelleracine/storage/raw/master/maps-images/n_rus.png"
    },
    {
        "country_code": "by",
        "title": "Map of Belarus",
        "size": 132837770,
        "url": "https://bitbucket.org/isabelleracine/storage/raw/master/maps/by/belarus.map",
        "preview_url": "https://bitbucket.org/isabelleracine/storage/raw/master/maps-images/n_bel.gif",
        "edges_url": "https://bitbucket.org/isabelleracine/storage/raw/master/maps/by/edges",
        "geometry_url": "https://bitbucket.org/isabelleracine/storage/raw/master/maps/by/geometry",
        "location_index_url": "https://bitbucket.org/isabelleracine/storage/raw/master/maps/by/locationIndex",
        "names_url": "https://bitbucket.org/isabelleracine/storage/raw/master/maps/by/names",
        "nodes_url": "https://bitbucket.org/isabelleracine/storage/raw/master/maps/by/nodes",
        "properties_url": "https://bitbucket.org/isabelleracine/storage/raw/master/maps/by/properties"
    },
    {
        "country_code": "uk",
        "title": "Map of Ukraine",
        "size": 175012950,
        "preview_url": "https://bitbucket.org/isabelleracine/storage/raw/master/maps-images/n_ukr.gif"
    },
    {
        "country_code": "pl",
        "title": "Map of Poland",
        "size": 212539470,
        "preview_url": "https://bitbucket.org/isabelleracine/storage/raw/master/maps-images/n_pol.png"
    },
    {
        "country_code": "kz",
        "title": "Map of Kazakhstan",
        "size": 53298250,
        "preview_url": "https://bitbucket.org/isabelleracine/storage/raw/master/maps-images/n_kaz.gif"
    }
]
